2d_wavelet_transform/2d_dwt/algo.vcd
$date
  Thu Apr 27 01:40:22 2017
$end
$version
  GHDL v0
$end
$timescale
  1 fs
$end
$var reg 1 ! clk $end
$var reg 1 " start $end
$var reg 8 # out_data_1[7:0] $end
$var reg 8 $ out_data_2[7:0] $end
$var reg 1 % delayed_clk $end
$var reg 2 & counter[1:0] $end
$scope module uut $end
$var reg 1 ' clk $end
$var reg 1 ( start $end
$var reg 8 ) out_data_1[7:0] $end
$var reg 8 * out_data_2[7:0] $end
$var reg 8 + address[7:0] $end
$var reg 8 , readdata[7:0] $end
$var reg 8 - writedata[7:0] $end
$var reg 8 . dataoutfirst[7:0] $end
$var reg 8 / dataoutlast[7:0] $end
$var reg 1 0 read_en $end
$var reg 1 1 write_en $end
$var reg 1 2 data_in_valid $end
$var reg 1 3 we $end
$var reg 1 4 reset $end
$var reg 4 5 counter[3:0] $end
$var reg 4 6 counter1[3:0] $end
$var reg 1 7 row_complete $end
$var reg 8 8 dout_hp[7:0] $end
$var reg 8 9 dout_lp[7:0] $end
$var reg 8 : data_in[7:0] $end
$var reg 8 ; out_lp[7:0] $end
$var reg 8 < out_hp[7:0] $end
$var reg 8 = out_1[7:0] $end
$var reg 8 > out_2[7:0] $end
$var reg 8 ? out_3[7:0] $end
$var reg 8 @ out_4[7:0] $end
$var reg 1 A delayed_clk $end
$var reg 1 B in_process $end
$var reg 8 C next_stage_data[7:0] $end
$var reg 4 D pixel_count[3:0] $end
$var reg 8 E address1[7:0] $end
$var reg 8 F readdata1[7:0] $end
$var reg 8 G writedata1[7:0] $end
$var reg 1 H read1 $end
$var reg 1 I write1 $end
$scope module uut1 $end
$var reg 1 J clk $end
$var reg 1 K read $end
$var reg 1 L write $end
$var reg 8 M writedata[7:0] $end
$var reg 8 N readdata[7:0] $end
$var reg 8 O address[7:0] $end
$comment tram is not handled $end
$upscope $end
$scope module uut2 $end
$var reg 1 P clk $end
$var reg 8 Q din[7:0] $end
$var reg 8 R dout_lp[7:0] $end
$var reg 8 S dout_hp[7:0] $end
$comment data_pipe is not handled $end
$upscope $end
$scope module uut3 $end
$var reg 1 T clk $end
$var reg 8 U in_lp[7:0] $end
$var reg 8 V in_hp[7:0] $end
$var reg 8 W out_lp[7:0] $end
$var reg 8 X out_hp[7:0] $end
$upscope $end
$scope module uut4 $end
$var reg 1 Y clk $end
$var reg 1 Z read $end
$var reg 1 [ write $end
$var reg 8 \ writedata[7:0] $end
$var reg 8 ] readdata[7:0] $end
$var reg 8 ^ address[7:0] $end
$comment tram is not handled $end
$upscope $end
$upscope $end
$enddefinitions $end
#0
0!
0"
bUUUUUUUU #
bUUUUUUUU $
0%
b00 &
0'
0(
bUUUUUUUU )
bUUUUUUUU *
b00001111 +
bUUUUUUUU ,
b00000000 -
b00000000 .
b00000000 /
00
01
02
03
04
b1111 5
b0000 6
07
b00000000 8
b00000000 9
bUUUUUUUU :
bUUUUUUUU ;
bUUUUUUUU <
bUUUUUUUU =
bUUUUUUUU >
bUUUUUUUU ?
bUUUUUUUU @
0A
0B
b00000000 C
b0000 D
b00000000 E
bUUUUUUUU F
b00000000 G
0H
0I
0J
0K
0L
b00000000 M
bUUUUUUUU N
b00001111 O
0P
bUUUUUUUU Q
b00000000 R
b00000000 S
0T
b00000000 U
b00000000 V
bUUUUUUUU W
bUUUUUUUU X
0Y
0Z
0[
b00000000 \
bUUUUUUUU ]
b00000000 ^
#20000000
1!
b00000000 #
b00000000 $
1'
b00000000 )
b00000000 *
bZZZZZZZZ ,
bXXXXXXXX 8
bXXXXXXXX 9
b00000000 :
b00000000 ?
b00000000 @
bXXXXXXXX G
1J
bZZZZZZZZ N
1P
b00000000 Q
bXXXXXXXX R
bXXXXXXXX S
1T
bXXXXXXXX U
bXXXXXXXX V
b00000000 W
b00000000 X
1Y
bXXXXXXXX \
#40000000
0!
1"
0'
1(
bZZZZZZZZ F
0J
0P
0T
0Y
bZZZZZZZZ ]
#60000000
1!
bXXXXXXXX #
bXXXXXXXX $
1'
bXXXXXXXX )
bXXXXXXXX *
b00000000 +
10
13
b0000 5
bXXXXXXXX ?
bXXXXXXXX @
b0001 D
1J
1K
b00000000 O
1P
1T
bXXXXXXXX W
bXXXXXXXX X
1Y
#80000000
0!
0'
0J
0P
0T
0Y
#100000000
1!
b00000000 #
b00000000 $
1'
b00000000 )
b00000000 *
b00000001 +
b00000000 ,
b0001 5
b00000000 8
b00000000 9
b00000000 ?
b00000000 @
b0010 D
b00000000 G
1J
b00000000 N
b00000001 O
1P
b00000000 R
b00000000 S
1T
b00000000 U
b00000000 V
b00000000 W
b00000000 X
1Y
b00000000 \
#120000000
0!
0'
0J
0P
0T
0Y
#140000000
1!
1'
b00000010 +
b00000001 ,
b0010 5
b00000001 :
b0011 D
1J
b00000001 N
b00000010 O
1P
b00000001 Q
1T
1Y
#160000000
0!
0'
0J
0P
0T
0Y
#180000000
1!
1'
b00000011 +
b00000010 ,
b0011 5
b00000001 8
b00000001 9
b00000010 :
b0100 D
b00000001 G
1J
b00000010 N
b00000011 O
1P
b00000010 Q
b00000001 R
b00000001 S
1T
b00000001 U
b00000001 V
1Y
b00000001 \
#200000000
0!
0'
1A
0J
0P
0T
0Y
#220000000
1!
b00000001 #
b00000001 $
1'
b00000001 )
b00000001 *
b00000100 +
b00000011 ,
b0100 5
b0001 6
b00000011 9
b00000011 :
b00000001 ?
b00000001 @
b0101 D
b00000001 E
b00000011 G
1I
1J
b00000011 N
b00000100 O
1P
b00000011 Q
b00000011 R
1T
b00000011 U
b00000001 W
b00000001 X
1Y
1[
b00000011 \
b00000001 ^
#240000000
0!
0'
0A
0J
0P
0T
0Y
#260000000
1!
b00000000 #
b00000000 $
1'
b00000000 )
b00000000 *
b00000100 ,
00
b0010 6
b00000101 9
b00000100 :
b00000000 ?
b00000000 @
b0000 D
b00000010 E
b00000101 G
1J
0K
b00000100 N
1P
b00000100 Q
b00000101 R
1T
b00000101 U
b00000000 W
b00000000 X
1Y
b00000101 \
b00000010 ^
#280000000
0!
0'
1A
0J
0P
0T
0Y
#300000000
1!
b00000101 #
b00000001 $
1'
b00000101 )
b00000001 *
bZZZZZZZZ ,
b0011 6
b00000111 9
b00000000 :
b00000101 ?
b00000001 @
b00000011 E
b00000111 G
1J
bZZZZZZZZ N
1P
b00000000 Q
b00000111 R
1T
b00000111 U
b00000101 W
b00000001 X
1Y
b00000111 \
b00000011 ^
#320000000
0!
0'
0A
0J
0P
0T
0Y
#340000000
1!
b00000000 #
b00000000 $
1'
b00000000 )
b00000000 *
b0100 6
b11111100 8
b00000100 9
b00000000 ?
b00000000 @
b00000100 E
b00000100 G
1J
1P
b00000100 R
b11111100 S
1T
b00000100 U
b11111100 V
b00000000 W
b00000000 X
1Y
b00000100 \
b00000100 ^
#360000000
0!
0'
1A
0J
0P
0T
0Y
#380000000
1!
b00000100 #
b11111100 $
1'
b00000100 )
b11111100 *
b0101 6
b00000000 8
b00000000 9
b00000100 ?
b11111100 @
b00000101 E
b00000000 G
1J
1P
b00000000 R
b00000000 S
1T
b00000000 U
b00000000 V
b00000100 W
b11111100 X
1Y
b00000000 \
b00000101 ^
#400000000
0!
0'
0A
0J
0P
0T
0Y
#420000000
1!
b00000000 #
b00000000 $
1'
b00000000 )
b00000000 *
b0110 6
b00000000 ?
b00000000 @
b00000110 E
1J
1P
1T
b00000000 W
b00000000 X
1Y
b00000110 ^
#440000000
0!
0'
1A
0J
0P
0T
0Y
#460000000
1!
1'
b0111 6
b00000111 E
1J
1P
1T
1Y
b00000111 ^
#480000000
0!
0'
0A
0J
0P
0T
0Y
#500000000
1!
1'
b1000 6
b00001000 E
1J
1P
1T
1Y
b00001000 ^
#520000000
0!
0'
1A
0J
0P
0T
0Y
#540000000
1!
1'
b1001 6
b00001001 E
1J
1P
1T
1Y
b00001001 ^
#560000000
0!
0'
0A
0J
0P
0T
0Y
#580000000
1!
1'
b1010 6
b00001010 E
1J
1P
1T
1Y
b00001010 ^
#600000000
0!
0'
1A
0J
0P
0T
0Y
#620000000
1!
1'
b1011 6
b00001011 E
1J
1P
1T
1Y
b00001011 ^
#640000000
0!
0'
0A
0J
0P
0T
0Y
#660000000
1!
1'
b1100 6
b00001100 E
1J
1P
1T
1Y
b00001100 ^
#680000000
0!
0'
1A
0J
0P
0T
0Y
#700000000
1!
1'
b1101 6
b00001101 E
1J
1P
1T
1Y
b00001101 ^
#720000000
0!
0'
0A
0J
0P
0T
0Y
#740000000
1!
1'
b1110 6
b00001110 E
1J
1P
1T
1Y
b00001110 ^
#760000000
0!
0'
1A
0J
0P
0T
0Y
#780000000
1!
1'
b1111 6
b00001111 E
1J
1P
1T
1Y
b00001111 ^
#800000000
0!
0'
0A
0J
0P
0T
0Y
#820000000
1!
1'
b0000 6
b00000000 E
1J
1P
1T
1Y
b00000000 ^
#840000000
0!
0'
1A
0J
0P
0T
0Y
#860000000
1!
1'
b0001 6
b00000001 E
1J
1P
1T
1Y
b00000001 ^
#880000000
0!
0'
0A
0J
0P
0T
0Y
#900000000
1!
1'
b0010 6
b00000010 E
1J
1P
1T
1Y
b00000010 ^
#920000000
0!
0'
1A
0J
0P
0T
0Y
#940000000
1!
1'
b0011 6
b00000011 E
1J
1P
1T
1Y
b00000011 ^
#960000000
0!
0'
0A
0J
0P
0T
0Y
#980000000
1!
1'
b0100 6
b00000100 E
1J
1P
1T
1Y
b00000100 ^
#1000000000
0!
0'
1A
0J
0P
0T
0Y
#1020000000
1!
1'
b0101 6
b00000101 E
1J
1P
1T
1Y
b00000101 ^
#1040000000
0!
0'
0A
0J
0P
0T
0Y
#1060000000
1!
1'
b0110 6
b00000110 E
1J
1P
1T
1Y
b00000110 ^
#1080000000
0!
0'
1A
0J
0P
0T
0Y
#1100000000
1!
1'
b0111 6
b00000111 E
1J
1P
1T
1Y
b00000111 ^
#1120000000
0!
0'
0A
0J
0P
0T
0Y
#1140000000
1!
1'
b1000 6
b00001000 E
1J
1P
1T
1Y
b00001000 ^
#1160000000
0!
0'
1A
0J
0P
0T
0Y
#1180000000
1!
1'
b1001 6
b00001001 E
1J
1P
1T
1Y
b00001001 ^
#1200000000
0!
0'
0A
0J
0P
0T
0Y
#1220000000
1!
1'
b1010 6
b00001010 E
1J
1P
1T
1Y
b00001010 ^
#1240000000
0!
0'
1A
0J
0P
0T
0Y
#1260000000
1!
1'
b1011 6
b00001011 E
1J
1P
1T
1Y
b00001011 ^
#1280000000
0!
0'
0A
0J
0P
0T
0Y
#1300000000
1!
1'
b1100 6
b00001100 E
1J
1P
1T
1Y
b00001100 ^
#1320000000
0!
0'
1A
0J
0P
0T
0Y
#1340000000
1!
1'
b1101 6
b00001101 E
1J
1P
1T
1Y
b00001101 ^
#1360000000
0!
0'
0A
0J
0P
0T
0Y
#1380000000
1!
1'
b1110 6
b00001110 E
1J
1P
1T
1Y
b00001110 ^
#1400000000
0!
0'
1A
0J
0P
0T
0Y
#1420000000
1!
1'
b1111 6
b00001111 E
1J
1P
1T
1Y
b00001111 ^
#1440000000
0!
0'
0A
0J
0P
0T
0Y
#1460000000
1!
1'
b0000 6
b00000000 E
1J
1P
1T
1Y
b00000000 ^
#1480000000
0!
0'
1A
0J
0P
0T
0Y
#1500000000
1!
1'
b0001 6
b00000001 E
1J
1P
1T
1Y
b00000001 ^
#1520000000
0!
0'
0A
0J
0P
0T
0Y
#1540000000
1!
1'
b0010 6
b00000010 E
1J
1P
1T
1Y
b00000010 ^
#1560000000
0!
0'
1A
0J
0P
0T
0Y
#1580000000
1!
1'
b0011 6
b00000011 E
1J
1P
1T
1Y
b00000011 ^
#1600000000
0!
0'
0A
0J
0P
0T
0Y
#1620000000
1!
1'
b0100 6
b00000100 E
1J
1P
1T
1Y
b00000100 ^
#1640000000
0!
0'
1A
0J
0P
0T
0Y
#1660000000
1!
1'
b0101 6
b00000101 E
1J
1P
1T
1Y
b00000101 ^
#1680000000
0!
0'
0A
0J
0P
0T
0Y
#1700000000
1!
1'
b0110 6
b00000110 E
1J
1P
1T
1Y
b00000110 ^
#1720000000
0!
0'
1A
0J
0P
0T
0Y
#1740000000
1!
1'
b0111 6
b00000111 E
1J
1P
1T
1Y
b00000111 ^
#1760000000
0!
0'
0A
0J
0P
0T
0Y
#1780000000
1!
1'
b1000 6
b00001000 E
1J
1P
1T
1Y
b00001000 ^
#1800000000
0!
0'
1A
0J
0P
0T
0Y
#1820000000
1!
1'
b1001 6
b00001001 E
1J
1P
1T
1Y
b00001001 ^
#1840000000
0!
0'
0A
0J
0P
0T
0Y
#1860000000
1!
1'
b1010 6
b00001010 E
1J
1P
1T
1Y
b00001010 ^
#1880000000
0!
0'
1A
0J
0P
0T
0Y
#1900000000
1!
1'
b1011 6
b00001011 E
1J
1P
1T
1Y
b00001011 ^
#1920000000
0!
0'
0A
0J
0P
0T
0Y
#1940000000
1!
1'
b1100 6
b00001100 E
1J
1P
1T
1Y
b00001100 ^
#1960000000
0!
0'
1A
0J
0P
0T
0Y
#1980000000
1!
1'
b1101 6
b00001101 E
1J
1P
1T
1Y
b00001101 ^
#2000000000
0!
0'
0A
0J
0P
0T
0Y
#2020000000
1!
1'
b1110 6
b00001110 E
1J
1P
1T
1Y
b00001110 ^
#2040000000
0!
0'
1A
0J
0P
0T
0Y
#2060000000
1!
1'
b1111 6
b00001111 E
1J
1P
1T
1Y
b00001111 ^
#2080000000
0!
0'
0A
0J
0P
0T
0Y
#2100000000
1!
1'
b0000 6
b00000000 E
1J
1P
1T
1Y
b00000000 ^
#2120000000
0!
0'
1A
0J
0P
0T
0Y
#2140000000
1!
1'
b0001 6
b00000001 E
1J
1P
1T
1Y
b00000001 ^
#2160000000
0!
0'
0A
0J
0P
0T
0Y
#2180000000
1!
1'
b0010 6
b00000010 E
1J
1P
1T
1Y
b00000010 ^
#2200000000
0!
0'
1A
0J
0P
0T
0Y
#2220000000
1!
1'
b0011 6
b00000011 E
1J
1P
1T
1Y
b00000011 ^
#2240000000
0!
0'
0A
0J
0P
0T
0Y
#2260000000
1!
1'
b0100 6
b00000100 E
1J
1P
1T
1Y
b00000100 ^
#2280000000
0!
0'
1A
0J
0P
0T
0Y
#2300000000
1!
1'
b0101 6
b00000101 E
1J
1P
1T
1Y
b00000101 ^
#2320000000
0!
0'
0A
0J
0P
0T
0Y
#2340000000
1!
1'
b0110 6
b00000110 E
1J
1P
1T
1Y
b00000110 ^
#2360000000
0!
0'
1A
0J
0P
0T
0Y
#2380000000
1!
1'
b0111 6
b00000111 E
1J
1P
1T
1Y
b00000111 ^
#2400000000
0!
0'
0A
0J
0P
0T
0Y
#2420000000
1!
1'
b1000 6
b00001000 E
1J
1P
1T
1Y
b00001000 ^
#2440000000
0!
0'
1A
0J
0P
0T
0Y
#2460000000
1!
1'
b1001 6
b00001001 E
1J
1P
1T
1Y
b00001001 ^
#2480000000
0!
0'
0A
0J
0P
0T
0Y
#2500000000
1!
1'
b1010 6
b00001010 E
1J
1P
1T
1Y
b00001010 ^
#2520000000
0!
0'
1A
0J
0P
0T
0Y
#2540000000
1!
1'
b1011 6
b00001011 E
1J
1P
1T
1Y
b00001011 ^
#2560000000
0!
0'
0A
0J
0P
0T
0Y
#2580000000
1!
1'
b1100 6
b00001100 E
1J
1P
1T
1Y
b00001100 ^
#2600000000
0!
0'
1A
0J
0P
0T
0Y
#2620000000
1!
1'
b1101 6
b00001101 E
1J
1P
1T
1Y
b00001101 ^
#2640000000
0!
0'
0A
0J
0P
0T
0Y
#2660000000
1!
1'
b1110 6
b00001110 E
1J
1P
1T
1Y
b00001110 ^
#2680000000
0!
0'
1A
0J
0P
0T
0Y
#2700000000
1!
1'
b1111 6
b00001111 E
1J
1P
1T
1Y
b00001111 ^
#2720000000
0!
0'
0A
0J
0P
0T
0Y
#2740000000
1!
1'
b0000 6
b00000000 E
1J
1P
1T
1Y
b00000000 ^
#2760000000
0!
0'
1A
0J
0P
0T
0Y
#2780000000
1!
1'
b0001 6
b00000001 E
1J
1P
1T
1Y
b00000001 ^
#2800000000
0!
0'
0A
0J
0P
0T
0Y
#2820000000
1!
1'
b0010 6
b00000010 E
1J
1P
1T
1Y
b00000010 ^
#2840000000
0!
0'
1A
0J
0P
0T
0Y
#2860000000
1!
1'
b0011 6
b00000011 E
1J
1P
1T
1Y
b00000011 ^
#2880000000
0!
0'
0A
0J
0P
0T
0Y
#2900000000
1!
1'
b0100 6
b00000100 E
1J
1P
1T
1Y
b00000100 ^
#2920000000
0!
0'
1A
0J
0P
0T
0Y
#2940000000
1!
1'
b0101 6
b00000101 E
1J
1P
1T
1Y
b00000101 ^
#2960000000
0!
0'
0A
0J
0P
0T
0Y
#2980000000
1!
1'
b0110 6
b00000110 E
1J
1P
1T
1Y
b00000110 ^
#3000000000
0!
0'
1A
0J
0P
0T
0Y
#3020000000
1!
1'
b0111 6
b00000111 E
1J
1P
1T
1Y
b00000111 ^
#3040000000
0!
0'
0A
0J
0P
0T
0Y
#3060000000
1!
1'
b1000 6
b00001000 E
1J
1P
1T
1Y
b00001000 ^
#3080000000
0!
0'
1A
0J
0P
0T
0Y
#3100000000
1!
1'
b1001 6
b00001001 E
1J
1P
1T
1Y
b00001001 ^
#3120000000
0!
0'
0A
0J
0P
0T
0Y
#3140000000
1!
1'
b1010 6
b00001010 E
1J
1P
1T
1Y
b00001010 ^
#3160000000
0!
0'
1A
0J
0P
0T
0Y
#3180000000
1!
1'
b1011 6
b00001011 E
1J
1P
1T
1Y
b00001011 ^
#3200000000
0!
0'
0A
0J
0P
0T
0Y
#3220000000
1!
1'
b1100 6
b00001100 E
1J
1P
1T
1Y
b00001100 ^
#3240000000
0!
0'
1A
0J
0P
0T
0Y
#3260000000
1!
1'
b1101 6
b00001101 E
1J
1P
1T
1Y
b00001101 ^
#3280000000
0!
0'
0A
0J
0P
0T
0Y
#3300000000
1!
1'
b1110 6
b00001110 E
1J
1P
1T
1Y
b00001110 ^
#3320000000
0!
0'
1A
0J
0P
0T
0Y
#3340000000
1!
1'
b1111 6
b00001111 E
1J
1P
1T
1Y
b00001111 ^
#3360000000
0!
0'
0A
0J
0P
0T
0Y
#3380000000
1!
1'
b0000 6
b00000000 E
1J
1P
1T
1Y
b00000000 ^
#3400000000
0!
0'
1A
0J
0P
0T
0Y
#3420000000
1!
1'
b0001 6
b00000001 E
1J
1P
1T
1Y
b00000001 ^
#3440000000
0!
0'
0A
0J
0P
0T
0Y
#3460000000
1!
1'
b0010 6
b00000010 E
1J
1P
1T
1Y
b00000010 ^
#3480000000
0!
0'
1A
0J
0P
0T
0Y
#3500000000
1!
1'
b0011 6
b00000011 E
1J
1P
1T
1Y
b00000011 ^
#3520000000
0!
0'
0A
0J
0P
0T
0Y
#3540000000
1!
1'
b0100 6
b00000100 E
1J
1P
1T
1Y
b00000100 ^
#3560000000
0!
0'
1A
0J
0P
0T
0Y
#3580000000
1!
1'
b0101 6
b00000101 E
1J
1P
1T
1Y
b00000101 ^
#3600000000
0!
0'
0A
0J
0P
0T
0Y
#3620000000
1!
1'
b0110 6
b00000110 E
1J
1P
1T
1Y
b00000110 ^
#3640000000
0!
0'
1A
0J
0P
0T
0Y
#3660000000
1!
1'
b0111 6
b00000111 E
1J
1P
1T
1Y
b00000111 ^
#3680000000
0!
0'
0A
0J
0P
0T
0Y
#3700000000
1!
1'
b1000 6
b00001000 E
1J
1P
1T
1Y
b00001000 ^
#3720000000
0!
0'
1A
0J
0P
0T
0Y
#3740000000
1!
1'
b1001 6
b00001001 E
1J
1P
1T
1Y
b00001001 ^
#3760000000
0!
0'
0A
0J
0P
0T
0Y
#3780000000
1!
1'
b1010 6
b00001010 E
1J
1P
1T
1Y
b00001010 ^
#3800000000
0!
0'
1A
0J
0P
0T
0Y
#3820000000
1!
1'
b1011 6
b00001011 E
1J
1P
1T
1Y
b00001011 ^
#3840000000
0!
0'
0A
0J
0P
0T
0Y
#3860000000
1!
1'
b1100 6
b00001100 E
1J
1P
1T
1Y
b00001100 ^
#3880000000
0!
0'
1A
0J
0P
0T
0Y
#3900000000
1!
1'
b1101 6
b00001101 E
1J
1P
1T
1Y
b00001101 ^
#3920000000
0!
0'
0A
0J
0P
0T
0Y
#3940000000
1!
1'
b1110 6
b00001110 E
1J
1P
1T
1Y
b00001110 ^
#3960000000
0!
0'
1A
0J
0P
0T
0Y
#3980000000
1!
1'
b1111 6
b00001111 E
1J
1P
1T
1Y
b00001111 ^
#4000000000
0!
0'
0A
0J
0P
0T
0Y
#4020000000
1!
1'
b0000 6
b00000000 E
1J
1P
1T
1Y
b00000000 ^
#4040000000
0!
0'
1A
0J
0P
0T
0Y
#4060000000
1!
1'
b0001 6
b00000001 E
1J
1P
1T
1Y
b00000001 ^
#4080000000
0!
0'
0A
0J
0P
0T
0Y
#4100000000
1!
1'
b0010 6
b00000010 E
1J
1P
1T
1Y
b00000010 ^
#4120000000
0!
0'
1A
0J
0P
0T
0Y
#4140000000
1!
1'
b0011 6
b00000011 E
1J
1P
1T
1Y
b00000011 ^
#4160000000
0!
0'
0A
0J
0P
0T
0Y
#4180000000
1!
1'
b0100 6
b00000100 E
1J
1P
1T
1Y
b00000100 ^
#4200000000
0!
0'
1A
0J
0P
0T
0Y
#4220000000
1!
1'
b0101 6
b00000101 E
1J
1P
1T
1Y
b00000101 ^
#4240000000
0!
0'
0A
0J
0P
0T
0Y
#4260000000
1!
1'
b0110 6
b00000110 E
1J
1P
1T
1Y
b00000110 ^
#4280000000
0!
0'
1A
0J
0P
0T
0Y
#4300000000
1!
1'
b0111 6
b00000111 E
1J
1P
1T
1Y
b00000111 ^
#4320000000
0!
0'
0A
0J
0P
0T
0Y
#4340000000
1!
1'
b1000 6
b00001000 E
1J
1P
1T
1Y
b00001000 ^
#4360000000
0!
0'
1A
0J
0P
0T
0Y
#4380000000
1!
1'
b1001 6
b00001001 E
1J
1P
1T
1Y
b00001001 ^
#4400000000
0!
0'
0A
0J
0P
0T
0Y
#4420000000
1!
1'
b1010 6
b00001010 E
1J
1P
1T
1Y
b00001010 ^
#4440000000
0!
0'
1A
0J
0P
0T
0Y
#4460000000
1!
1'
b1011 6
b00001011 E
1J
1P
1T
1Y
b00001011 ^
#4480000000
0!
0'
0A
0J
0P
0T
0Y
#4500000000
1!
1'
b1100 6
b00001100 E
1J
1P
1T
1Y
b00001100 ^
#4520000000
0!
0'
1A
0J
0P
0T
0Y
#4540000000
1!
1'
b1101 6
b00001101 E
1J
1P
1T
1Y
b00001101 ^
#4560000000
0!
0'
0A
0J
0P
0T
0Y
#4580000000
1!
1'
b1110 6
b00001110 E
1J
1P
1T
1Y
b00001110 ^
#4600000000
0!
0'
1A
0J
0P
0T
0Y
#4620000000
1!
1'
b1111 6
b00001111 E
1J
1P
1T
1Y
b00001111 ^
#4640000000
0!
0'
0A
0J
0P
0T
0Y
#4660000000
1!
1'
b0000 6
b00000000 E
1J
1P
1T
1Y
b00000000 ^
#4680000000
0!
0'
1A
0J
0P
0T
0Y
#4700000000
1!
1'
b0001 6
b00000001 E
1J
1P
1T
1Y
b00000001 ^
#4720000000
0!
0'
0A
0J
0P
0T
0Y
#4740000000
1!
1'
b0010 6
b00000010 E
1J
1P
1T
1Y
b00000010 ^
#4760000000
0!
0'
1A
0J
0P
0T
0Y
#4780000000
1!
1'
b0011 6
b00000011 E
1J
1P
1T
1Y
b00000011 ^
#4800000000
0!
0'
0A
0J
0P
0T
0Y
#4820000000
1!
1'
b0100 6
b00000100 E
1J
1P
1T
1Y
b00000100 ^
#4840000000
0!
0'
1A
0J
0P
0T
0Y
#4860000000
1!
1'
b0101 6
b00000101 E
1J
1P
1T
1Y
b00000101 ^
#4880000000
0!
0'
0A
0J
0P
0T
0Y
#4900000000
1!
1'
b0110 6
b00000110 E
1J
1P
1T
1Y
b00000110 ^
#4920000000
0!
0'
1A
0J
0P
0T
0Y
#4940000000
1!
1'
b0111 6
b00000111 E
1J
1P
1T
1Y
b00000111 ^
#4960000000
0!
0'
0A
0J
0P
0T
0Y
#4980000000
1!
1'
b1000 6
b00001000 E
1J
1P
1T
1Y
b00001000 ^
