2d_wavelet_transform/2d_dwt/test.vcd
$date
  Wed Apr 26 23:18:31 2017
$end
$version
  GHDL v0
$end
$timescale
  1 fs
$end
$var reg 1 ! clk $end
$var reg 1 " start $end
$var reg 8 # out_data_1[7:0] $end
$var reg 8 $ out_data_2[7:0] $end
$var reg 1 % delayed_clk $end
$var reg 2 & counter[1:0] $end
$scope module uut $end
$var reg 1 ' clk $end
$var reg 1 ( start $end
$var reg 8 ) out_data_1[7:0] $end
$var reg 8 * out_data_2[7:0] $end
$var reg 8 + address[7:0] $end
$var reg 8 , readdata[7:0] $end
$var reg 8 - writedata[7:0] $end
$var reg 8 . dataoutfirst[7:0] $end
$var reg 8 / dataoutlast[7:0] $end
$var reg 1 0 read_en $end
$var reg 1 1 write_en $end
$var reg 1 2 data_in_valid $end
$var reg 1 3 we $end
$var reg 1 4 reset $end
$var reg 4 5 counter[3:0] $end
$var reg 2 6 counter1[1:0] $end
$var reg 1 7 row_complete $end
$var reg 8 8 dout_hp[7:0] $end
$var reg 8 9 dout_lp[7:0] $end
$var reg 8 : data_in[7:0] $end
$var reg 8 ; out_lp[7:0] $end
$var reg 8 < out_hp[7:0] $end
$var reg 8 = out_1[7:0] $end
$var reg 8 > out_2[7:0] $end
$var reg 8 ? out_3[7:0] $end
$var reg 8 @ out_4[7:0] $end
$var reg 1 A delayed_clk $end
$var reg 1 B in_process $end
$var reg 8 C next_stage_data[7:0] $end
$var reg 4 D pixel_count[3:0] $end
$scope module uut1 $end
$var reg 1 E clk $end
$var reg 1 F read $end
$var reg 1 G write $end
$var reg 8 H writedata[7:0] $end
$var reg 8 I readdata[7:0] $end
$var reg 8 J address[7:0] $end
$comment tram is not handled $end
$upscope $end
$scope module uut2 $end
$var reg 1 K clk $end
$var reg 8 L din[7:0] $end
$var reg 8 M dout_lp[7:0] $end
$var reg 8 N dout_hp[7:0] $end
$comment data_pipe is not handled $end
$upscope $end
$scope module uut3 $end
$var reg 1 O clk $end
$var reg 8 P in_lp[7:0] $end
$var reg 8 Q in_hp[7:0] $end
$var reg 8 R out_lp[7:0] $end
$var reg 8 S out_hp[7:0] $end
$upscope $end
$upscope $end
$enddefinitions $end
#0
0!
0"
bUUUUUUUU #
bUUUUUUUU $
0%
b00 &
0'
0(
bUUUUUUUU )
bUUUUUUUU *
b00001111 +
bUUUUUUUU ,
b00000000 -
b00000000 .
b00000000 /
00
01
02
03
04
b1111 5
b00 6
07
b00000000 8
b00000000 9
bUUUUUUUU :
bUUUUUUUU ;
bUUUUUUUU <
bUUUUUUUU =
bUUUUUUUU >
bUUUUUUUU ?
bUUUUUUUU @
0A
0B
b00000000 C
b0000 D
0E
0F
0G
b00000000 H
bUUUUUUUU I
b00001111 J
0K
bUUUUUUUU L
b00000000 M
b00000000 N
0O
b00000000 P
b00000000 Q
bUUUUUUUU R
bUUUUUUUU S
#20000000
1!
b01 &
1'
bZZZZZZZZ ,
bXXXXXXXX 8
bXXXXXXXX 9
b00000000 :
1E
bZZZZZZZZ I
1K
b00000000 L
bXXXXXXXX M
bXXXXXXXX N
bXXXXXXXX P
bXXXXXXXX Q
#40000000
0!
1"
0'
1(
0E
0K
#60000000
1!
1%
b10 &
1'
b00000000 +
10
13
b0000 5
b0001 D
1E
1F
b00000000 J
1K
#80000000
0!
0'
0E
0K
#100000000
1!
b11 &
1'
b00000001 +
b00000000 ,
b0001 5
b00000000 8
b00000000 9
b0010 D
1E
b00000000 I
b00000001 J
1K
b00000000 M
b00000000 N
b00000000 P
b00000000 Q
#120000000
0!
0'
0E
0K
#140000000
1!
0%
b00 &
1'
b00000010 +
b00000001 ,
b0010 5
b00000001 :
b0011 D
1E
b00000001 I
b00000010 J
1K
b00000001 L
#160000000
0!
0'
0E
0K
#180000000
1!
b01 &
1'
b00000011 +
b00000010 ,
b0011 5
b00000001 8
b00000001 9
b00000010 :
b0100 D
1E
b00000010 I
b00000011 J
1K
b00000010 L
b00000001 M
b00000001 N
b00000001 P
b00000001 Q
#200000000
0!
b00000001 #
b00000001 $
0'
b00000001 )
b00000001 *
b00000001 ?
b00000001 @
1A
0E
0K
1O
b00000001 R
b00000001 S
#220000000
1!
1%
b10 &
1'
b00000011 ,
00
b00000011 9
b00000011 :
b0000 D
1E
0F
b00000011 I
1K
b00000011 L
b00000011 M
b00000011 P
#240000000
0!
0'
0A
0E
0K
0O
#260000000
1!
b11 &
1'
b00000100 +
bZZZZZZZZ ,
10
b0100 5
b00000101 9
b00000000 :
b0001 D
1E
1F
bZZZZZZZZ I
b00000100 J
1K
b00000000 L
b00000101 M
b00000101 P
#280000000
0!
b00000000 #
b00000000 $
0'
b00000000 )
b00000000 *
b00000000 ?
b00000000 @
1A
0E
0K
1O
b00000000 R
b00000000 S
#300000000
1!
0%
b00 &
1'
b00000101 +
b00000100 ,
b0101 5
b11111101 8
b00000011 9
b00000100 :
b0010 D
1E
b00000100 I
b00000101 J
1K
b00000100 L
b00000011 M
b11111101 N
b00000011 P
b11111101 Q
#320000000
0!
0'
0A
0E
0K
0O
#340000000
1!
b01 &
1'
b00000110 +
b00000101 ,
b0110 5
b00000100 8
b00000100 9
b00000101 :
b0011 D
1E
b00000101 I
b00000110 J
1K
b00000101 L
b00000100 M
b00000100 N
b00000100 P
b00000100 Q
#360000000
0!
b00000100 #
b00000100 $
0'
b00000100 )
b00000100 *
b00000100 ?
b00000100 @
1A
0E
0K
1O
b00000100 R
b00000100 S
#380000000
1!
1%
b10 &
1'
b00000111 +
b00000110 ,
b0111 5
b00000001 8
b00001001 9
b00000110 :
b0100 D
1E
b00000110 I
b00000111 J
1K
b00000110 L
b00001001 M
b00000001 N
b00001001 P
b00000001 Q
#400000000
0!
0'
0A
0E
0K
0O
#420000000
1!
b11 &
1'
b00000111 ,
00
b00001011 9
b00000111 :
b0000 D
1E
0F
b00000111 I
1K
b00000111 L
b00001011 M
b00001011 P
#440000000
0!
b00000000 #
b00000000 $
0'
b00000000 )
b00000000 *
b00000000 ?
b00000000 @
1A
0E
0K
1O
b00000000 R
b00000000 S
#460000000
1!
0%
b00 &
1'
b00001000 +
bZZZZZZZZ ,
10
b1000 5
b00001101 9
b00000000 :
b0001 D
1E
1F
bZZZZZZZZ I
b00001000 J
1K
b00000000 L
b00001101 M
b00001101 P
#480000000
0!
0'
0A
0E
0K
0O
#500000000
1!
b01 &
1'
b00001001 +
b00001000 ,
b1001 5
b11111001 8
b00000111 9
b00001000 :
b0010 D
1E
b00001000 I
b00001001 J
1K
b00001000 L
b00000111 M
b11111001 N
b00000111 P
b11111001 Q
#520000000
0!
b00000111 #
b11111001 $
0'
b00000111 )
b11111001 *
b00000111 ?
b11111001 @
1A
0E
0K
1O
b00000111 R
b11111001 S
#540000000
1!
1%
b10 &
1'
b00001010 +
b00001001 ,
b1010 5
b00001000 8
b00001000 9
b00001001 :
b0011 D
1E
b00001001 I
b00001010 J
1K
b00001001 L
b00001000 M
b00001000 N
b00001000 P
b00001000 Q
#560000000
0!
0'
0A
0E
0K
0O
#580000000
1!
b11 &
1'
b00001011 +
b00001010 ,
b1011 5
b00000001 8
b00010001 9
b00001010 :
b0100 D
1E
b00001010 I
b00001011 J
1K
b00001010 L
b00010001 M
b00000001 N
b00010001 P
b00000001 Q
#600000000
0!
b00000000 #
b00000000 $
0'
b00000000 )
b00000000 *
b00000000 ?
b00000000 @
1A
0E
0K
1O
b00000000 R
b00000000 S
#620000000
1!
0%
b00 &
1'
b00001011 ,
00
b00010011 9
b00001011 :
b0000 D
1E
0F
b00001011 I
1K
b00001011 L
b00010011 M
b00010011 P
#640000000
0!
0'
0A
0E
0K
0O
#660000000
1!
b01 &
1'
b00001100 +
bZZZZZZZZ ,
10
b1100 5
b00010101 9
b00000000 :
b0001 D
1E
1F
bZZZZZZZZ I
b00001100 J
1K
b00000000 L
b00010101 M
b00010101 P
#680000000
0!
b00010101 #
b00000001 $
0'
b00010101 )
b00000001 *
b00010101 ?
b00000001 @
1A
0E
0K
1O
b00010101 R
b00000001 S
#700000000
1!
1%
b10 &
1'
b00001101 +
b00001100 ,
b1101 5
b11110101 8
b00001011 9
b00001100 :
b0010 D
1E
b00001100 I
b00001101 J
1K
b00001100 L
b00001011 M
b11110101 N
b00001011 P
b11110101 Q
#720000000
0!
0'
0A
0E
0K
0O
#740000000
1!
b11 &
1'
b00001110 +
b00001101 ,
b1110 5
b00001100 8
b00001100 9
b00001101 :
b0011 D
1E
b00001101 I
b00001110 J
1K
b00001101 L
b00001100 M
b00001100 N
b00001100 P
b00001100 Q
#760000000
0!
b00000000 #
b00000000 $
0'
b00000000 )
b00000000 *
b00000000 ?
b00000000 @
1A
0E
0K
1O
b00000000 R
b00000000 S
#780000000
1!
0%
b00 &
1'
b00001111 +
b00001110 ,
b1111 5
b00000001 8
b00011001 9
b00001110 :
b0100 D
1E
b00001110 I
b00001111 J
1K
b00001110 L
b00011001 M
b00000001 N
b00011001 P
b00000001 Q
#800000000
0!
0'
0A
0E
0K
0O
#820000000
1!
b01 &
1'
b00001111 ,
00
b00011011 9
b00001111 :
b0000 D
1E
0F
b00001111 I
1K
b00001111 L
b00011011 M
b00011011 P
#840000000
0!
b00011011 #
b00000001 $
0'
b00011011 )
b00000001 *
b00011011 ?
b00000001 @
1A
0E
0K
1O
b00011011 R
b00000001 S
#860000000
1!
1%
b10 &
1'
b00000000 +
bZZZZZZZZ ,
10
b0000 5
b00011101 9
b00000000 :
b0001 D
1E
1F
bZZZZZZZZ I
b00000000 J
1K
b00000000 L
b00011101 M
b00011101 P
#880000000
0!
0'
0A
0E
0K
0O
#900000000
1!
b11 &
1'
b00000001 +
b00000000 ,
b0001 5
b11110001 8
b00001111 9
b0010 D
1E
b00000000 I
b00000001 J
1K
b00001111 M
b11110001 N
b00001111 P
b11110001 Q
#920000000
0!
b00000000 #
b00000000 $
0'
b00000000 )
b00000000 *
b00000000 ?
b00000000 @
1A
0E
0K
1O
b00000000 R
b00000000 S
#940000000
1!
0%
b00 &
1'
b00000010 +
b00000001 ,
b0010 5
b00000000 8
b00000000 9
b00000001 :
b0011 D
1E
b00000001 I
b00000010 J
1K
b00000001 L
b00000000 M
b00000000 N
b00000000 P
b00000000 Q
#960000000
0!
0'
0A
0E
0K
0O
#980000000
1!
b01 &
1'
b00000011 +
b00000010 ,
b0011 5
b00000001 8
b00000001 9
b00000010 :
b0100 D
1E
b00000010 I
b00000011 J
1K
b00000010 L
b00000001 M
b00000001 N
b00000001 P
b00000001 Q
#1000000000
0!
b00000001 #
b00000001 $
0'
b00000001 )
b00000001 *
b00000001 ?
b00000001 @
1A
0E
0K
1O
b00000001 R
b00000001 S
#1020000000
1!
1%
b10 &
1'
b00000011 ,
00
b00000011 9
b00000011 :
b0000 D
1E
0F
b00000011 I
1K
b00000011 L
b00000011 M
b00000011 P
#1040000000
0!
0'
0A
0E
0K
0O
#1060000000
1!
b11 &
1'
b00000100 +
bZZZZZZZZ ,
10
b0100 5
b00000101 9
b00000000 :
b0001 D
1E
1F
bZZZZZZZZ I
b00000100 J
1K
b00000000 L
b00000101 M
b00000101 P
#1080000000
0!
b00000000 #
b00000000 $
0'
b00000000 )
b00000000 *
b00000000 ?
b00000000 @
1A
0E
0K
1O
b00000000 R
b00000000 S
#1100000000
1!
0%
b00 &
1'
b00000101 +
b00000100 ,
b0101 5
b11111101 8
b00000011 9
b00000100 :
b0010 D
1E
b00000100 I
b00000101 J
1K
b00000100 L
b00000011 M
b11111101 N
b00000011 P
b11111101 Q
#1120000000
0!
0'
0A
0E
0K
0O
#1140000000
1!
b01 &
1'
b00000110 +
b00000101 ,
b0110 5
b00000100 8
b00000100 9
b00000101 :
b0011 D
1E
b00000101 I
b00000110 J
1K
b00000101 L
b00000100 M
b00000100 N
b00000100 P
b00000100 Q
#1160000000
0!
b00000100 #
b00000100 $
0'
b00000100 )
b00000100 *
b00000100 ?
b00000100 @
1A
0E
0K
1O
b00000100 R
b00000100 S
#1180000000
1!
1%
b10 &
1'
b00000111 +
b00000110 ,
b0111 5
b00000001 8
b00001001 9
b00000110 :
b0100 D
1E
b00000110 I
b00000111 J
1K
b00000110 L
b00001001 M
b00000001 N
b00001001 P
b00000001 Q
#1200000000
0!
0'
0A
0E
0K
0O
#1220000000
1!
b11 &
1'
b00000111 ,
00
b00001011 9
b00000111 :
b0000 D
1E
0F
b00000111 I
1K
b00000111 L
b00001011 M
b00001011 P
#1240000000
0!
b00000000 #
b00000000 $
0'
b00000000 )
b00000000 *
b00000000 ?
b00000000 @
1A
0E
0K
1O
b00000000 R
b00000000 S
#1260000000
1!
0%
b00 &
1'
b00001000 +
bZZZZZZZZ ,
10
b1000 5
b00001101 9
b00000000 :
b0001 D
1E
1F
bZZZZZZZZ I
b00001000 J
1K
b00000000 L
b00001101 M
b00001101 P
#1280000000
0!
0'
0A
0E
0K
0O
#1300000000
1!
b01 &
1'
b00001001 +
b00001000 ,
b1001 5
b11111001 8
b00000111 9
b00001000 :
b0010 D
1E
b00001000 I
b00001001 J
1K
b00001000 L
b00000111 M
b11111001 N
b00000111 P
b11111001 Q
#1320000000
0!
b00000111 #
b11111001 $
0'
b00000111 )
b11111001 *
b00000111 ?
b11111001 @
1A
0E
0K
1O
b00000111 R
b11111001 S
#1340000000
1!
1%
b10 &
1'
b00001010 +
b00001001 ,
b1010 5
b00001000 8
b00001000 9
b00001001 :
b0011 D
1E
b00001001 I
b00001010 J
1K
b00001001 L
b00001000 M
b00001000 N
b00001000 P
b00001000 Q
#1360000000
0!
0'
0A
0E
0K
0O
#1380000000
1!
b11 &
1'
b00001011 +
b00001010 ,
b1011 5
b00000001 8
b00010001 9
b00001010 :
b0100 D
1E
b00001010 I
b00001011 J
1K
b00001010 L
b00010001 M
b00000001 N
b00010001 P
b00000001 Q
#1400000000
0!
b00000000 #
b00000000 $
0'
b00000000 )
b00000000 *
b00000000 ?
b00000000 @
1A
0E
0K
1O
b00000000 R
b00000000 S
#1420000000
1!
0%
b00 &
1'
b00001011 ,
00
b00010011 9
b00001011 :
b0000 D
1E
0F
b00001011 I
1K
b00001011 L
b00010011 M
b00010011 P
#1440000000
0!
0'
0A
0E
0K
0O
#1460000000
1!
b01 &
1'
b00001100 +
bZZZZZZZZ ,
10
b1100 5
b00010101 9
b00000000 :
b0001 D
1E
1F
bZZZZZZZZ I
b00001100 J
1K
b00000000 L
b00010101 M
b00010101 P
#1480000000
0!
b00010101 #
b00000001 $
0'
b00010101 )
b00000001 *
b00010101 ?
b00000001 @
1A
0E
0K
1O
b00010101 R
b00000001 S
#1500000000
1!
1%
b10 &
1'
b00001101 +
b00001100 ,
b1101 5
b11110101 8
b00001011 9
b00001100 :
b0010 D
1E
b00001100 I
b00001101 J
1K
b00001100 L
b00001011 M
b11110101 N
b00001011 P
b11110101 Q
#1520000000
0!
0'
0A
0E
0K
0O
#1540000000
1!
b11 &
1'
b00001110 +
b00001101 ,
b1110 5
b00001100 8
b00001100 9
b00001101 :
b0011 D
1E
b00001101 I
b00001110 J
1K
b00001101 L
b00001100 M
b00001100 N
b00001100 P
b00001100 Q
#1560000000
0!
b00000000 #
b00000000 $
0'
b00000000 )
b00000000 *
b00000000 ?
b00000000 @
1A
0E
0K
1O
b00000000 R
b00000000 S
#1580000000
1!
0%
b00 &
1'
b00001111 +
b00001110 ,
b1111 5
b00000001 8
b00011001 9
b00001110 :
b0100 D
1E
b00001110 I
b00001111 J
1K
b00001110 L
b00011001 M
b00000001 N
b00011001 P
b00000001 Q
#1600000000
0!
0'
0A
0E
0K
0O
#1620000000
1!
b01 &
1'
b00001111 ,
00
b00011011 9
b00001111 :
b0000 D
1E
0F
b00001111 I
1K
b00001111 L
b00011011 M
b00011011 P
#1640000000
0!
b00011011 #
b00000001 $
0'
b00011011 )
b00000001 *
b00011011 ?
b00000001 @
1A
0E
0K
1O
b00011011 R
b00000001 S
#1660000000
1!
1%
b10 &
1'
b00000000 +
bZZZZZZZZ ,
10
b0000 5
b00011101 9
b00000000 :
b0001 D
1E
1F
bZZZZZZZZ I
b00000000 J
1K
b00000000 L
b00011101 M
b00011101 P
#1680000000
0!
0'
0A
0E
0K
0O
#1700000000
1!
b11 &
1'
b00000001 +
b00000000 ,
b0001 5
b11110001 8
b00001111 9
b0010 D
1E
b00000000 I
b00000001 J
1K
b00001111 M
b11110001 N
b00001111 P
b11110001 Q
#1720000000
0!
b00000000 #
b00000000 $
0'
b00000000 )
b00000000 *
b00000000 ?
b00000000 @
1A
0E
0K
1O
b00000000 R
b00000000 S
#1740000000
1!
0%
b00 &
1'
b00000010 +
b00000001 ,
b0010 5
b00000000 8
b00000000 9
b00000001 :
b0011 D
1E
b00000001 I
b00000010 J
1K
b00000001 L
b00000000 M
b00000000 N
b00000000 P
b00000000 Q
#1760000000
0!
0'
0A
0E
0K
0O
#1780000000
1!
b01 &
1'
b00000011 +
b00000010 ,
b0011 5
b00000001 8
b00000001 9
b00000010 :
b0100 D
1E
b00000010 I
b00000011 J
1K
b00000010 L
b00000001 M
b00000001 N
b00000001 P
b00000001 Q
#1800000000
0!
b00000001 #
b00000001 $
0'
b00000001 )
b00000001 *
b00000001 ?
b00000001 @
1A
0E
0K
1O
b00000001 R
b00000001 S
#1820000000
1!
1%
b10 &
1'
b00000011 ,
00
b00000011 9
b00000011 :
b0000 D
1E
0F
b00000011 I
1K
b00000011 L
b00000011 M
b00000011 P
#1840000000
0!
0'
0A
0E
0K
0O
#1860000000
1!
b11 &
1'
b00000100 +
bZZZZZZZZ ,
10
b0100 5
b00000101 9
b00000000 :
b0001 D
1E
1F
bZZZZZZZZ I
b00000100 J
1K
b00000000 L
b00000101 M
b00000101 P
#1880000000
0!
b00000000 #
b00000000 $
0'
b00000000 )
b00000000 *
b00000000 ?
b00000000 @
1A
0E
0K
1O
b00000000 R
b00000000 S
#1900000000
1!
0%
b00 &
1'
b00000101 +
b00000100 ,
b0101 5
b11111101 8
b00000011 9
b00000100 :
b0010 D
1E
b00000100 I
b00000101 J
1K
b00000100 L
b00000011 M
b11111101 N
b00000011 P
b11111101 Q
#1920000000
0!
0'
0A
0E
0K
0O
#1940000000
1!
b01 &
1'
b00000110 +
b00000101 ,
b0110 5
b00000100 8
b00000100 9
b00000101 :
b0011 D
1E
b00000101 I
b00000110 J
1K
b00000101 L
b00000100 M
b00000100 N
b00000100 P
b00000100 Q
#1960000000
0!
b00000100 #
b00000100 $
0'
b00000100 )
b00000100 *
b00000100 ?
b00000100 @
1A
0E
0K
1O
b00000100 R
b00000100 S
#1980000000
1!
1%
b10 &
1'
b00000111 +
b00000110 ,
b0111 5
b00000001 8
b00001001 9
b00000110 :
b0100 D
1E
b00000110 I
b00000111 J
1K
b00000110 L
b00001001 M
b00000001 N
b00001001 P
b00000001 Q
