1d_wavelet_transform/quartus_demo/avalon.vcd
$date
  Fri Apr 28 02:28:00 2017
$end
$version
  GHDL v0
$end
$timescale
  1 fs
$end
$var reg 1 ! clk $end
$var reg 1 " reset $end
$var reg 1 # read $end
$var reg 1 $ write $end
$var reg 6 % address[5:0] $end
$var reg 32 & readdata[31:0] $end
$var reg 32 ' writedata[31:0] $end
$scope module uut $end
$var reg 1 ( clk $end
$var reg 1 ) reset $end
$var reg 6 * address[5:0] $end
$var reg 1 + read $end
$var reg 32 , readdata[31:0] $end
$var reg 1 - write $end
$var reg 32 . writedata[31:0] $end
$var reg 1 / start $end
$var reg 1 0 clk_write $end
$var reg 8 1 ca[7:0] $end
$var reg 8 2 ch[7:0] $end
$var reg 16 3 from_wavelet[15:0] $end
$scope module top_wavelet $end
$var reg 1 4 clk $end
$var reg 1 5 start $end
$var reg 8 6 ca[7:0] $end
$var reg 8 7 ch[7:0] $end
$var reg 1 8 read_in $end
$var reg 6 9 address_in[5:0] $end
$var reg 16 : readdata1[15:0] $end
$var reg 8 ; writedata1[7:0] $end
$var reg 1 < clk_write $end
$var reg 1 = ready $end
$var reg 8 > dout_hp[7:0] $end
$var reg 8 ? dout_lp[7:0] $end
$var reg 8 @ ca1[7:0] $end
$var reg 8 A ch1[7:0] $end
$var reg 8 B cv1[7:0] $end
$var reg 8 C cd1[7:0] $end
$var reg 8 D out_hp_1[7:0] $end
$var reg 8 E out_lp_1[7:0] $end
$var reg 8 F din[7:0] $end
$var reg 1 G delayed_clk $end
$var reg 8 H data_in[7:0] $end
$var reg 1 I reset $end
$var reg 1 J read_row $end
$var reg 1 K data_stored $end
$var reg 1 L out_clear $end
$var reg 1 M status $end
$comment state_pass is not handled $end
$var reg 1 N ready1 $end
$var reg 1 O clk_out $end
$scope module data_controller $end
$var reg 1 P clk $end
$var reg 1 Q start $end
$comment state is not handled $end
$var reg 1 R read_row $end
$var reg 6 S address_in[5:0] $end
$var reg 16 T data[15:0] $end
$var reg 1 U status $end
$var reg 8 V address2[7:0] $end
$var reg 8 W address[7:0] $end
$var reg 8 X address3[7:0] $end
$var reg 8 Y readdata[7:0] $end
$var reg 8 Z writedata[7:0] $end
$var reg 8 [ readdata2[7:0] $end
$var reg 8 \ writedata2[7:0] $end
$var reg 8 ] readdata3[7:0] $end
$var reg 8 ^ writedata3[7:0] $end
$var reg 1 _ read_en $end
$var reg 1 ` read2 $end
$var reg 1 a read3 $end
$var reg 1 b write3 $end
$var reg 1 c write2 $end
$var reg 1 d write_en $end
$var reg 1 e reset $end
$var reg 4 f counter[3:0] $end
$var reg 4 g counter1[3:0] $end
$var reg 4 h delay[3:0] $end
$var reg 8 i dout_hp[7:0] $end
$var reg 8 j dout_lp[7:0] $end
$var reg 8 k data_in[7:0] $end
$var reg 1 l switch $end
$var reg 1 m in_process $end
$var reg 4 n row_pixel_count[3:0] $end
$var reg 4 o total_pixel_count[3:0] $end
$scope module ram $end
$var reg 1 p clk $end
$var reg 1 q read $end
$var reg 1 r write $end
$var reg 8 s writedata[7:0] $end
$var reg 8 t readdata[7:0] $end
$var reg 8 u address[7:0] $end
$comment tram is not handled $end
$upscope $end
$scope module filter_1 $end
$var reg 1 v clk $end
$var reg 8 w din[7:0] $end
$var reg 8 x dout_lp[7:0] $end
$var reg 8 y dout_hp[7:0] $end
$comment data_pipe is not handled $end
$upscope $end
$scope module outputram1 $end
$var reg 1 z clk $end
$var reg 1 { read $end
$var reg 1 | write $end
$var reg 8 } writedata[7:0] $end
$var reg 8 !" readdata[7:0] $end
$var reg 8 "" address[7:0] $end
$comment tram is not handled $end
$upscope $end
$scope module outputram2 $end
$var reg 1 #" clk $end
$var reg 1 $" read $end
$var reg 1 %" write $end
$var reg 8 &" writedata[7:0] $end
$var reg 8 '" readdata[7:0] $end
$var reg 8 (" address[7:0] $end
$comment tram is not handled $end
$upscope $end
$upscope $end
$scope module fsm $end
$var reg 1 )" clk $end
$var reg 1 *" start $end
$var reg 1 +" reset $end
$var reg 1 ," status $end
$var reg 1 -" data_stored $end
$var reg 1 ." ready $end
$var reg 1 /" read_row $end
$var reg 1 0" out_clear $end
$comment state is not handled $end
$comment next_state is not handled $end
$comment present_state is not handled $end
$var reg 4 1" row_pixel_count[3:0] $end
$var reg 4 2" total_pixel_count[3:0] $end
$upscope $end
$upscope $end
$upscope $end
$enddefinitions $end
#0
0!
1"
0#
0$
bUUUUUU %
b00000000000000000000000000000000 &
bUUUUUUUUUUUUUUUUUUUUUUUUUUUUUUUU '
0(
1)
bUUUUUU *
0+
b00000000000000000000000000000000 ,
0-
bUUUUUUUUUUUUUUUUUUUUUUUUUUUUUUUU .
1/
U0
bUUUUUUUU 1
bUUUUUUUU 2
b0000000000000000 3
04
15
bUUUUUUUU 6
bUUUUUUUU 7
08
bUUUUUU 9
b0000000000000000 :
bUUUUUUUU ;
U<
U=
bUUUUUUUU >
bUUUUUUUU ?
bUUUUUUUU @
bUUUUUUUU A
bUUUUUUUU B
bUUUUUUUU C
bUUUUUUUU D
bUUUUUUUU E
bUUUUUUUU F
UG
bUUUUUUUU H
0I
0J
UK
UL
UM
0N
UO
0P
1Q
0R
bUUUUUU S
b0000000000000000 T
UU
b00000000 V
b00000000 W
b00000000 X
bZZZZZZZZ Y
b00000000 Z
bUUUUUUUU [
b00000000 \
bUUUUUUUU ]
b00000000 ^
0_
0`
0a
0b
0c
0d
0e
b0000 f
b0000 g
b0000 h
b00000000 i
b00000000 j
b00000000 k
0l
0m
b0000 n
b0000 o
0p
0q
0r
b00000000 s
bZZZZZZZZ t
b00000000 u
0v
b00000000 w
b00000000 x
b00000000 y
0z
0{
0|
b00000000 }
bUUUUUUUU !"
b00000000 ""
0#"
0$"
0%"
b00000000 &"
bUUUUUUUU '"
b00000000 ("
0)"
1*"
0+"
U,"
U-"
0."
0/"
U0"
b0000 1"
b0000 2"
#20000000
1!
1(
14
0K
0L
1P
1p
1v
1z
1#"
1)"
0-"
00"
#40000000
0!
0(
04
0P
0p
0v
0z
0#"
0)"
#60000000
1!
1(
14
1P
b00000001 W
b00000001 Y
1_
b0001 f
b00000001 k
b0001 n
1p
1q
b00000001 t
b00000001 u
1v
b00000001 w
1z
1#"
1)"
#80000000
0!
0"
1#
b000001 %
0(
0)
b000001 *
1+
04
18
b000001 9
0P
b000001 S
0p
0v
0z
0#"
0)"
#100000000
1!
1(
14
1P
b00000010 W
b00000010 Y
b00000001 \
b00000001 ^
b0010 f
b00000001 i
b00000001 j
b00000010 k
1m
b0010 n
1p
b00000010 t
b00000010 u
1v
b00000010 w
b00000001 x
b00000001 y
1z
b00000001 }
1#"
b00000001 &"
1)"
#120000000
0!
0(
04
0P
0p
0v
0z
0#"
0)"
#121000000
0#
0+
08
#140000000
1!
1(
14
1P
b00000001 V
b00000011 W
b00000001 X
b00000011 Y
b00000011 \
1b
1c
b0011 f
b0001 g
b00000011 j
b00000011 k
b0011 n
1p
b00000011 t
b00000011 u
1v
b00000011 w
b00000011 x
1z
1|
b00000011 }
b00000001 ""
1#"
1%"
b00000001 ("
1)"
#160000000
0!
0(
04
0P
0p
0v
0z
0#"
0)"
#180000000
1!
1(
14
1P
b00000100 W
b00000100 Y
b00000101 \
b0100 f
b0001 h
b00000101 j
b00000100 k
b0100 n
1p
b00000100 t
b00000100 u
1v
b00000100 w
b00000101 x
1z
b00000101 }
1#"
1)"
#200000000
0!
0(
04
0P
0p
0v
0z
0#"
0)"
#220000000
1!
1(
14
1P
b00000010 V
b00000101 W
b00000010 X
b00000101 Y
b00000111 \
b0101 f
b0010 g
b00000111 j
b00000101 k
b0101 n
1p
b00000101 t
b00000101 u
1v
b00000101 w
b00000111 x
1z
b00000111 }
b00000010 ""
1#"
b00000010 ("
1)"
#240000000
0!
1#
0(
1+
04
18
0P
0p
0v
0z
0#"
0)"
#260000000
1!
1(
14
1P
b00000110 W
b00000110 Y
b00001001 \
b0110 f
b0010 h
b00001001 j
b00000110 k
b0110 n
1p
b00000110 t
b00000110 u
1v
b00000110 w
b00001001 x
1z
b00001001 }
1#"
1)"
#280000000
0!
0(
04
0P
0p
0v
0z
0#"
0)"
#281000000
0#
0+
08
#300000000
1!
1(
14
1P
b00000011 V
b00000111 W
b00000011 X
b00000111 Y
b00001011 \
b0111 f
b0011 g
b00001011 j
b00000111 k
b0111 n
1p
b00000111 t
b00000111 u
1v
b00000111 w
b00001011 x
1z
b00001011 }
b00000011 ""
1#"
b00000011 ("
1)"
#320000000
0!
0(
04
0P
0p
0v
0z
0#"
0)"
#340000000
1!
1(
14
1P
b00001000 W
b00001000 Y
b00001101 \
b1000 f
b0011 h
b00001101 j
b00001000 k
b1000 n
1p
b00001000 t
b00001000 u
1v
b00001000 w
b00001101 x
1z
b00001101 }
1#"
1)"
#360000000
0!
0(
04
0P
0p
0v
0z
0#"
0)"
#380000000
1!
1(
14
1P
b00000100 V
b00001001 W
b00000100 X
b00001001 Y
b00001111 \
b1001 f
b0100 g
b00001111 j
b00001001 k
b1001 n
1p
b00001001 t
b00001001 u
1v
b00001001 w
b00001111 x
1z
b00001111 }
b00000100 ""
1#"
b00000100 ("
1)"
#400000000
0!
1#
0(
1+
04
18
0P
0p
0v
0z
0#"
0)"
#420000000
1!
1(
14
1P
b00001010 W
b00001010 Y
b00010001 \
b1010 f
b0100 h
b00010001 j
b00001010 k
b1010 n
1p
b00001010 t
b00001010 u
1v
b00001010 w
b00010001 x
1z
b00010001 }
1#"
1)"
#440000000
0!
0(
04
0P
0p
0v
0z
0#"
0)"
#441000000
0#
0+
08
#460000000
1!
1(
14
1P
b00000101 V
b00001011 W
b00000101 X
b00001011 Y
b00010011 \
b1011 f
b0101 g
b00010011 j
b00001011 k
b1011 n
1p
b00001011 t
b00001011 u
1v
b00001011 w
b00010011 x
1z
b00010011 }
b00000101 ""
1#"
b00000101 ("
1)"
#480000000
0!
0(
04
0P
0p
0v
0z
0#"
0)"
#500000000
1!
1(
14
1P
b00001100 W
b00001100 Y
b00010101 \
b1100 f
b0101 h
b00010101 j
b00001100 k
b1100 n
1p
b00001100 t
b00001100 u
1v
b00001100 w
b00010101 x
1z
b00010101 }
1#"
1)"
#520000000
0!
0(
04
0P
0p
0v
0z
0#"
0)"
#540000000
1!
1(
14
1P
b00000110 V
b00001101 W
b00000110 X
b00001101 Y
b00010111 \
b1101 f
b0110 g
b00010111 j
b00001101 k
b1101 n
1p
b00001101 t
b00001101 u
1v
b00001101 w
b00010111 x
1z
b00010111 }
b00000110 ""
1#"
b00000110 ("
1)"
#560000000
0!
1#
0(
1+
04
18
0P
0p
0v
0z
0#"
0)"
#580000000
1!
1(
14
1P
b00001110 W
b00001110 Y
b00011001 \
b1110 f
b0110 h
b00011001 j
b00001110 k
b1110 n
1p
b00001110 t
b00001110 u
1v
b00001110 w
b00011001 x
1z
b00011001 }
1#"
1)"
#600000000
0!
0(
04
0P
0p
0v
0z
0#"
0)"
#601000000
0#
0+
08
#620000000
1!
1(
14
1P
b00000111 V
b00001111 W
b00000111 X
b00001111 Y
b00011011 \
b1111 f
b0111 g
b00011011 j
b00001111 k
b1111 n
1p
b00001111 t
b00001111 u
1v
b00001111 w
b00011011 x
1z
b00011011 }
b00000111 ""
1#"
b00000111 ("
1)"
#640000000
0!
0(
04
0P
0p
0v
0z
0#"
0)"
#660000000
1!
1(
14
1P
bZZZZZZZZ Y
b00011101 \
0_
b0111 h
b00011101 j
b00000000 k
b0000 n
1p
0q
bZZZZZZZZ t
1v
b00000000 w
b00011101 x
1z
b00011101 }
1#"
1)"
#680000000
0!
0(
04
0P
0p
0v
0z
0#"
0)"
#700000000
1!
1(
14
1P
b00001000 V
b00001000 X
b00001111 \
b11110001 ^
b1000 g
b11110001 i
b00001111 j
1p
1v
b00001111 x
b11110001 y
1z
b00001111 }
b00001000 ""
1#"
b11110001 &"
b00001000 ("
1)"
#720000000
0!
1#
0(
1+
04
18
0P
0p
0v
0z
0#"
0)"
#740000000
1!
1(
14
1P
b00000000 \
b00000000 ^
b1000 h
b00000000 i
b00000000 j
1p
1v
b00000000 x
b00000000 y
1z
b00000000 }
1#"
b00000000 &"
1)"
#760000000
0!
0(
04
0P
0p
0v
0z
0#"
0)"
#761000000
0#
0+
08
#780000000
1!
1(
14
1P
b00001001 V
b00001001 X
b1001 g
1p
1v
1z
b00001001 ""
1#"
b00001001 ("
1)"
#800000000
0!
0(
04
0P
0p
0v
0z
0#"
0)"
#820000000
1!
1(
14
1P
b1001 h
1p
1v
1z
1#"
1)"
#840000000
0!
0(
04
0P
0p
0v
0z
0#"
0)"
#860000000
1!
1(
14
1P
b00001010 V
b00001010 X
b1010 g
1p
1v
1z
b00001010 ""
1#"
b00001010 ("
1)"
#880000000
0!
1#
0(
1+
04
18
0P
0p
0v
0z
0#"
0)"
#900000000
1!
b0000000000000000UUUUUUUUUUUUUUUU &
1(
b0000000000000000UUUUUUUUUUUUUUUU ,
bUUUUUUUUUUUUUUUU 3
14
bUUUUUUUUUUUUUUUU :
0=
0M
1P
bUUUUUUUUUUUUUUUU T
0U
b00000001 V
b00000001 X
0b
0c
b1010 h
1l
1p
1v
1z
0|
b00000001 ""
1#"
0%"
b00000001 ("
1)"
0,"
#920000000
0!
0(
04
0P
0p
0v
0z
0#"
0)"
#921000000
0#
0+
08
#940000000
1!
1(
14
1=
1M
1P
1U
1p
1v
1z
1#"
1)"
1,"
#960000000
0!
0(
04
0P
0p
0v
0z
0#"
0)"
#980000000
1!
1(
14
1J
1K
1N
1P
1R
1`
1a
1p
1v
1z
1{
1#"
1$"
1)"
1-"
1."
1/"
#1000000000
0!
0(
04
0P
0p
0v
0z
0#"
0)"
#1020000000
1!
b00000000000000000000010100000001 &
1(
b00000000000000000000010100000001 ,
b0000010100000001 3
14
b0000010100000001 :
0J
0N
1P
0R
b0000010100000001 T
b00000101 [
b00000001 ]
0`
0a
1p
1v
1z
0{
b00000101 !"
1#"
0$"
b00000001 '"
1)"
0."
0/"
#1040000000
0!
1#
0(
1+
04
18
0P
0p
0v
0z
0#"
0)"
#1060000000
1!
1(
14
1P
1p
1v
1z
1#"
1)"
#1080000000
0!
0(
04
0P
0p
0v
0z
0#"
0)"
#1081000000
0#
0+
08
#1100000000
1!
1(
14
1J
1N
1P
1R
1`
1a
1p
1v
1z
1{
1#"
1$"
1)"
1."
1/"
#1120000000
0!
0(
04
0P
0p
0v
0z
0#"
0)"
#1140000000
1!
1(
14
0J
0N
1P
0R
0`
0a
1p
1v
1z
0{
1#"
0$"
1)"
0."
0/"
#1160000000
0!
0(
04
0P
0p
0v
0z
0#"
0)"
#1180000000
1!
1(
14
1P
1p
1v
1z
1#"
1)"
#1200000000
0!
1#
b000010 %
0(
b000010 *
1+
04
18
b000010 9
0P
b000010 S
b00000010 V
b00000010 X
0p
0v
0z
b00000010 ""
0#"
b00000010 ("
0)"
#1220000000
1!
1(
14
1J
1N
1P
1R
1`
1a
1p
1v
1z
1{
1#"
1$"
1)"
1."
1/"
#1240000000
0!
0(
04
0P
0p
0v
0z
0#"
0)"
#1241000000
0#
0+
08
#1260000000
1!
b00000000000000000000100100000001 &
1(
b00000000000000000000100100000001 ,
b0000100100000001 3
14
b0000100100000001 :
0J
0N
1P
0R
b0000100100000001 T
b00001001 [
0`
0a
1p
1v
1z
0{
b00001001 !"
1#"
0$"
1)"
0."
0/"
#1280000000
0!
0(
04
0P
0p
0v
0z
0#"
0)"
#1300000000
1!
1(
14
1P
1p
1v
1z
1#"
1)"
#1320000000
0!
0(
04
0P
0p
0v
0z
0#"
0)"
#1340000000
1!
1(
14
1J
1N
1P
1R
1`
1a
1p
1v
1z
1{
1#"
1$"
1)"
1."
1/"
#1360000000
0!
1#
b000011 %
0(
b000011 *
1+
04
18
b000011 9
0P
b000011 S
b00000011 V
b00000011 X
0p
0v
0z
b00000011 ""
0#"
b00000011 ("
0)"
#1380000000
1!
b00000000000000000000110100000001 &
1(
b00000000000000000000110100000001 ,
b0000110100000001 3
14
b0000110100000001 :
0J
0N
1P
0R
b0000110100000001 T
b00001101 [
0`
0a
1p
1v
1z
0{
b00001101 !"
1#"
0$"
1)"
0."
0/"
#1400000000
0!
0(
04
0P
0p
0v
0z
0#"
0)"
#1401000000
0#
0+
08
#1420000000
1!
1(
14
1P
1p
1v
1z
1#"
1)"
#1440000000
0!
0(
04
0P
0p
0v
0z
0#"
0)"
#1460000000
1!
1(
14
1J
1N
1P
1R
1`
1a
1p
1v
1z
1{
1#"
1$"
1)"
1."
1/"
#1480000000
0!
0(
04
0P
0p
0v
0z
0#"
0)"
#1500000000
1!
1(
14
0J
0N
1P
0R
0`
0a
1p
1v
1z
0{
1#"
0$"
1)"
0."
0/"
#1520000000
0!
1#
b000100 %
0(
b000100 *
1+
04
18
b000100 9
0P
b000100 S
b00000100 V
b00000100 X
0p
0v
0z
b00000100 ""
0#"
b00000100 ("
0)"
#1540000000
1!
1(
14
1P
1p
1v
1z
1#"
1)"
#1560000000
0!
0(
04
0P
0p
0v
0z
0#"
0)"
#1561000000
0#
0+
08
#1580000000
1!
1(
14
1J
1N
1P
1R
1`
1a
1p
1v
1z
1{
1#"
1$"
1)"
1."
1/"
#1600000000
0!
0(
04
0P
0p
0v
0z
0#"
0)"
#1620000000
1!
b00000000000000000001000100000001 &
1(
b00000000000000000001000100000001 ,
b0001000100000001 3
14
b0001000100000001 :
0J
0N
1P
0R
b0001000100000001 T
b00010001 [
0`
0a
1p
1v
1z
0{
b00010001 !"
1#"
0$"
1)"
0."
0/"
#1640000000
0!
0(
04
0P
0p
0v
0z
0#"
0)"
#1660000000
1!
1(
14
1P
1p
1v
1z
1#"
1)"
#1680000000
0!
1#
b000101 %
0(
b000101 *
1+
04
18
b000101 9
0P
b000101 S
b00000101 V
b00000101 X
0p
0v
0z
b00000101 ""
0#"
b00000101 ("
0)"
#1700000000
1!
1(
14
1J
1N
1P
1R
1`
1a
1p
1v
1z
1{
1#"
1$"
1)"
1."
1/"
#1720000000
0!
0(
04
0P
0p
0v
0z
0#"
0)"
#1721000000
0#
0+
08
#1740000000
1!
b00000000000000000001010100000001 &
1(
b00000000000000000001010100000001 ,
b0001010100000001 3
14
b0001010100000001 :
0J
0N
1P
0R
b0001010100000001 T
b00010101 [
0`
0a
1p
1v
1z
0{
b00010101 !"
1#"
0$"
1)"
0."
0/"
#1760000000
0!
0(
04
0P
0p
0v
0z
0#"
0)"
#1780000000
1!
1(
14
1P
1p
1v
1z
1#"
1)"
#1800000000
0!
0(
04
0P
0p
0v
0z
0#"
0)"
#1820000000
1!
1(
14
1J
1N
1P
1R
1`
1a
1p
1v
1z
1{
1#"
1$"
1)"
1."
1/"
#1840000000
0!
1#
b000110 %
0(
b000110 *
1+
04
18
b000110 9
0P
b000110 S
b00000110 V
b00000110 X
0p
0v
0z
b00000110 ""
0#"
b00000110 ("
0)"
#1860000000
1!
b00000000000000000001100100000001 &
1(
b00000000000000000001100100000001 ,
b0001100100000001 3
14
b0001100100000001 :
0J
0N
1P
0R
b0001100100000001 T
b00011001 [
0`
0a
1p
1v
1z
0{
b00011001 !"
1#"
0$"
1)"
0."
0/"
#1880000000
0!
0(
04
0P
0p
0v
0z
0#"
0)"
#1881000000
0#
0+
08
#1900000000
1!
1(
14
1P
1p
1v
1z
1#"
1)"
#1920000000
0!
0(
04
0P
0p
0v
0z
0#"
0)"
#1940000000
1!
1(
14
1J
1N
1P
1R
1`
1a
1p
1v
1z
1{
1#"
1$"
1)"
1."
1/"
#1960000000
0!
0(
04
0P
0p
0v
0z
0#"
0)"
#1980000000
1!
1(
14
0J
0N
1P
0R
0`
0a
1p
1v
1z
0{
1#"
0$"
1)"
0."
0/"
#2000000000
0!
1#
b000111 %
0(
b000111 *
1+
04
18
b000111 9
0P
b000111 S
b00000111 V
b00000111 X
0p
0v
0z
b00000111 ""
0#"
b00000111 ("
0)"
#2020000000
1!
1(
14
1P
1p
1v
1z
1#"
1)"
#2040000000
0!
0(
04
0P
0p
0v
0z
0#"
0)"
#2041000000
0#
0+
08
#2060000000
1!
1(
14
1J
1N
1P
1R
1`
1a
1p
1v
1z
1{
1#"
1$"
1)"
1."
1/"
#2080000000
0!
0(
04
0P
0p
0v
0z
0#"
0)"
#2100000000
1!
b00000000000000000001110100000001 &
1(
b00000000000000000001110100000001 ,
b0001110100000001 3
14
b0001110100000001 :
0J
0N
1P
0R
b0001110100000001 T
b00011101 [
0`
0a
1p
1v
1z
0{
b00011101 !"
1#"
0$"
1)"
0."
0/"
#2120000000
0!
0(
04
0P
0p
0v
0z
0#"
0)"
#2140000000
1!
1(
14
1P
1p
1v
1z
1#"
1)"
#2160000000
0!
1#
b001000 %
0(
b001000 *
1+
04
18
b001000 9
0P
b001000 S
b00001000 V
b00001000 X
0p
0v
0z
b00001000 ""
0#"
b00001000 ("
0)"
#2180000000
1!
1(
14
1J
1N
1P
1R
1`
1a
1p
1v
1z
1{
1#"
1$"
1)"
1."
1/"
#2200000000
0!
0(
04
0P
0p
0v
0z
0#"
0)"
#2201000000
0#
0+
08
#2220000000
1!
b00000000000000000000000000000000 &
1(
b00000000000000000000000000000000 ,
b0000000000000000 3
14
b0000000000000000 :
0J
0N
1P
0R
b0000000000000000 T
b00000000 [
b00000000 ]
0`
0a
1p
1v
1z
0{
b00000000 !"
1#"
0$"
b00000000 '"
1)"
0."
0/"
#2240000000
0!
0(
04
0P
0p
0v
0z
0#"
0)"
#2260000000
1!
1(
14
1P
1p
1v
1z
1#"
1)"
#2280000000
0!
0(
04
0P
0p
0v
0z
0#"
0)"
#2300000000
1!
1(
14
1J
1N
1P
1R
1`
1a
1p
1v
1z
1{
1#"
1$"
1)"
1."
1/"
#2320000000
0!
0(
04
0P
0p
0v
0z
0#"
0)"
#2340000000
1!
1(
14
0J
0N
1P
0R
0`
0a
1p
1v
1z
0{
1#"
0$"
1)"
0."
0/"
#2360000000
0!
0(
04
0P
0p
0v
0z
0#"
0)"
#2380000000
1!
1(
14
1P
1p
1v
1z
1#"
1)"
#2400000000
0!
0(
04
0P
0p
0v
0z
0#"
0)"
#2420000000
1!
1(
14
1J
1N
1P
1R
1`
1a
1p
1v
1z
1{
1#"
1$"
1)"
1."
1/"
#2440000000
0!
0(
04
0P
0p
0v
0z
0#"
0)"
#2460000000
1!
1(
14
0J
0N
1P
0R
0`
0a
1p
1v
1z
0{
1#"
0$"
1)"
0."
0/"
#2480000000
0!
0(
04
0P
0p
0v
0z
0#"
0)"
#2500000000
1!
1(
14
1P
1p
1v
1z
1#"
1)"
#2520000000
0!
0(
04
0P
0p
0v
0z
0#"
0)"
#2540000000
1!
1(
14
1J
1N
1P
1R
1`
1a
1p
1v
1z
1{
1#"
1$"
1)"
1."
1/"
#2560000000
0!
0(
04
0P
0p
0v
0z
0#"
0)"
#2580000000
1!
1(
14
0J
0N
1P
0R
0`
0a
1p
1v
1z
0{
1#"
0$"
1)"
0."
0/"
#2600000000
0!
0(
04
0P
0p
0v
0z
0#"
0)"
#2620000000
1!
1(
14
1P
1p
1v
1z
1#"
1)"
#2640000000
0!
0(
04
0P
0p
0v
0z
0#"
0)"
#2660000000
1!
1(
14
1J
1N
1P
1R
1`
1a
1p
1v
1z
1{
1#"
1$"
1)"
1."
1/"
#2680000000
0!
0(
04
0P
0p
0v
0z
0#"
0)"
#2700000000
1!
1(
14
0J
0N
1P
0R
0`
0a
1p
1v
1z
0{
1#"
0$"
1)"
0."
0/"
#2720000000
0!
0(
04
0P
0p
0v
0z
0#"
0)"
#2740000000
1!
1(
14
1P
1p
1v
1z
1#"
1)"
#2760000000
0!
0(
04
0P
0p
0v
0z
0#"
0)"
#2780000000
1!
1(
14
1J
1N
1P
1R
1`
1a
1p
1v
1z
1{
1#"
1$"
1)"
1."
1/"
#2800000000
0!
0(
04
0P
0p
0v
0z
0#"
0)"
#2820000000
1!
1(
14
0J
0N
1P
0R
0`
0a
1p
1v
1z
0{
1#"
0$"
1)"
0."
0/"
#2840000000
0!
0(
04
0P
0p
0v
0z
0#"
0)"
#2860000000
1!
1(
14
1P
1p
1v
1z
1#"
1)"
#2880000000
0!
0(
04
0P
0p
0v
0z
0#"
0)"
#2900000000
1!
1(
14
1J
1N
1P
1R
1`
1a
1p
1v
1z
1{
1#"
1$"
1)"
1."
1/"
#2920000000
0!
0(
04
0P
0p
0v
0z
0#"
0)"
#2940000000
1!
1(
14
0J
0N
1P
0R
0`
0a
1p
1v
1z
0{
1#"
0$"
1)"
0."
0/"
#2960000000
0!
0(
04
0P
0p
0v
0z
0#"
0)"
#2980000000
1!
1(
14
1P
1p
1v
1z
1#"
1)"
#3000000000
0!
0(
04
0P
0p
0v
0z
0#"
0)"
#3020000000
1!
1(
14
1J
1N
1P
1R
1`
1a
1p
1v
1z
1{
1#"
1$"
1)"
1."
1/"
#3040000000
0!
0(
04
0P
0p
0v
0z
0#"
0)"
#3060000000
1!
1(
14
0J
0N
1P
0R
0`
0a
1p
1v
1z
0{
1#"
0$"
1)"
0."
0/"
#3080000000
0!
0(
04
0P
0p
0v
0z
0#"
0)"
#3100000000
1!
1(
14
1P
1p
1v
1z
1#"
1)"
#3120000000
0!
0(
04
0P
0p
0v
0z
0#"
0)"
#3140000000
1!
1(
14
1J
1N
1P
1R
1`
1a
1p
1v
1z
1{
1#"
1$"
1)"
1."
1/"
#3160000000
0!
0(
04
0P
0p
0v
0z
0#"
0)"
#3180000000
1!
1(
14
0J
0N
1P
0R
0`
0a
1p
1v
1z
0{
1#"
0$"
1)"
0."
0/"
#3200000000
0!
0(
04
0P
0p
0v
0z
0#"
0)"
#3220000000
1!
1(
14
1P
1p
1v
1z
1#"
1)"
#3240000000
0!
0(
04
0P
0p
0v
0z
0#"
0)"
#3260000000
1!
1(
14
1J
1N
1P
1R
1`
1a
1p
1v
1z
1{
1#"
1$"
1)"
1."
1/"
#3280000000
0!
0(
04
0P
0p
0v
0z
0#"
0)"
#3300000000
1!
1(
14
0J
0N
1P
0R
0`
0a
1p
1v
1z
0{
1#"
0$"
1)"
0."
0/"
#3320000000
0!
0(
04
0P
0p
0v
0z
0#"
0)"
#3340000000
1!
1(
14
1P
1p
1v
1z
1#"
1)"
#3360000000
0!
0(
04
0P
0p
0v
0z
0#"
0)"
#3380000000
1!
1(
14
1J
1N
1P
1R
1`
1a
1p
1v
1z
1{
1#"
1$"
1)"
1."
1/"
#3400000000
0!
0(
04
0P
0p
0v
0z
0#"
0)"
#3420000000
1!
1(
14
0J
0N
1P
0R
0`
0a
1p
1v
1z
0{
1#"
0$"
1)"
0."
0/"
#3440000000
0!
0(
04
0P
0p
0v
0z
0#"
0)"
#3460000000
1!
1(
14
1P
1p
1v
1z
1#"
1)"
#3480000000
0!
0(
04
0P
0p
0v
0z
0#"
0)"
#3500000000
1!
1(
14
1J
1N
1P
1R
1`
1a
1p
1v
1z
1{
1#"
1$"
1)"
1."
1/"
#3520000000
0!
0(
04
0P
0p
0v
0z
0#"
0)"
#3540000000
1!
1(
14
0J
0N
1P
0R
0`
0a
1p
1v
1z
0{
1#"
0$"
1)"
0."
0/"
#3560000000
0!
0(
04
0P
0p
0v
0z
0#"
0)"
#3580000000
1!
1(
14
1P
1p
1v
1z
1#"
1)"
#3600000000
0!
0(
04
0P
0p
0v
0z
0#"
0)"
#3620000000
1!
1(
14
1J
1N
1P
1R
1`
1a
1p
1v
1z
1{
1#"
1$"
1)"
1."
1/"
#3640000000
0!
0(
04
0P
0p
0v
0z
0#"
0)"
#3660000000
1!
1(
14
0J
0N
1P
0R
0`
0a
1p
1v
1z
0{
1#"
0$"
1)"
0."
0/"
#3680000000
0!
0(
04
0P
0p
0v
0z
0#"
0)"
#3700000000
1!
1(
14
1P
1p
1v
1z
1#"
1)"
#3720000000
0!
0(
04
0P
0p
0v
0z
0#"
0)"
#3740000000
1!
1(
14
1J
1N
1P
1R
1`
1a
1p
1v
1z
1{
1#"
1$"
1)"
1."
1/"
#3760000000
0!
0(
04
0P
0p
0v
0z
0#"
0)"
#3780000000
1!
1(
14
0J
0N
1P
0R
0`
0a
1p
1v
1z
0{
1#"
0$"
1)"
0."
0/"
#3800000000
0!
0(
04
0P
0p
0v
0z
0#"
0)"
#3820000000
1!
1(
14
1P
1p
1v
1z
1#"
1)"
#3840000000
0!
0(
04
0P
0p
0v
0z
0#"
0)"
#3860000000
1!
1(
14
1J
1N
1P
1R
1`
1a
1p
1v
1z
1{
1#"
1$"
1)"
1."
1/"
#3880000000
0!
0(
04
0P
0p
0v
0z
0#"
0)"
#3900000000
1!
1(
14
0J
0N
1P
0R
0`
0a
1p
1v
1z
0{
1#"
0$"
1)"
0."
0/"
#3920000000
0!
0(
04
0P
0p
0v
0z
0#"
0)"
#3940000000
1!
1(
14
1P
1p
1v
1z
1#"
1)"
#3960000000
0!
0(
04
0P
0p
0v
0z
0#"
0)"
#3980000000
1!
1(
14
1J
1N
1P
1R
1`
1a
1p
1v
1z
1{
1#"
1$"
1)"
1."
1/"
#4000000000
0!
0(
04
0P
0p
0v
0z
0#"
0)"
#4020000000
1!
1(
14
0J
0N
1P
0R
0`
0a
1p
1v
1z
0{
1#"
0$"
1)"
0."
0/"
#4040000000
0!
0(
04
0P
0p
0v
0z
0#"
0)"
#4060000000
1!
1(
14
1P
1p
1v
1z
1#"
1)"
#4080000000
0!
0(
04
0P
0p
0v
0z
0#"
0)"
#4100000000
1!
1(
14
1J
1N
1P
1R
1`
1a
1p
1v
1z
1{
1#"
1$"
1)"
1."
1/"
#4120000000
0!
0(
04
0P
0p
0v
0z
0#"
0)"
#4140000000
1!
1(
14
0J
0N
1P
0R
0`
0a
1p
1v
1z
0{
1#"
0$"
1)"
0."
0/"
#4160000000
0!
0(
04
0P
0p
0v
0z
0#"
0)"
